<?xml version="1.0" standalone="no"?>
<!DOCTYPE svg PUBLIC "-//W3C//DTD SVG 20010904//EN"
 "http://www.w3.org/TR/2001/REC-SVG-20010904/DTD/svg10.dtd">
<svg version="1.0" xmlns="http://www.w3.org/2000/svg"
 width="64.000000pt" height="64.000000pt" viewBox="0 0 64.000000 64.000000"
 preserveAspectRatio="xMidYMid meet">

<g transform="translate(0.000000,64.000000) scale(0.100000,-0.100000)"
fill="#000000" stroke="none">
<path d="M447 592 c-26 -26 -47 -53 -47 -59 0 -24 19 -22 49 3 l31 26 0 -86
c0 -79 2 -86 20 -86 18 0 20 7 20 86 l0 86 31 -26 c30 -26 49 -27 49 -3 0 12
-90 107 -101 107 -2 0 -26 -22 -52 -48z"/>
<path d="M84 570 c-11 -4 -33 -22 -47 -40 l-27 -32 0 -177 c0 -166 1 -180 21
-205 40 -51 62 -56 266 -56 209 0 235 7 268 70 22 42 18 205 -5 205 -9 0 -16
-11 -18 -27 -2 -16 -6 -28 -8 -28 -3 0 -21 12 -40 26 -96 74 -218 17 -321
-149 -20 -31 -40 -57 -45 -57 -19 0 -66 30 -72 45 -8 21 -8 328 0 349 12 31
49 41 169 46 98 4 120 8 120 20 0 12 -21 15 -120 17 -66 1 -129 -2 -141 -7z
m359 -279 c14 -5 41 -24 61 -41 46 -41 48 -79 7 -121 l-29 -29 -146 0 c-80 0
-146 4 -146 9 0 11 81 121 106 143 49 43 100 57 147 39z"/>
<path d="M135 450 c-23 -26 -23 -74 0 -100 40 -44 125 -9 125 51 0 58 -87 91
-125 49z m80 -50 c0 -30 -35 -40 -55 -15 -10 12 -10 18 0 30 20 25 55 15 55
-15z"/>
</g>
</svg>
